^C:\USERS\FLOW MENTES\DOCUMENTS\VISUAL STUDIO 2015\PROJECTS\NOSMALL EDITOR\NOSMALL EDITOR\GENERATEDFILES\DEBUG\MOC_NOSMALLEDITOR.CPP
/c /I.\GENERATEDFILES /I. /IC:\QT\5.7\MSVC2015_64\INCLUDE /I.\GENERATEDFILES\DEBUG /IC:\QT\5.7\MSVC2015_64\INCLUDE\QTCORE /IC:\QT\5.7\MSVC2015_64\INCLUDE\QTGUI /IC:\QT\5.7\MSVC2015_64\INCLUDE\QTMULTIMEDIA /IC:\QT\5.7\MSVC2015_64\INCLUDE\QTMULTIMEDIAWIDGETS /IC:\QT\5.7\MSVC2015_64\INCLUDE\QTQUICKWIDGETS /IC:\QT\5.7\MSVC2015_64\INCLUDE\QTUITOOLS /IC:\QT\5.7\MSVC2015_64\INCLUDE\QTWIDGETS /Zi /nologo /W1 /WX- /Od /D UNICODE /D WIN32 /D QT_DLL /D QT_CORE_LIB /D QT_GUI_LIB /D QT_MULTIMEDIA_LIB /D QT_MULTIMEDIAWIDGETS_LIB /D QT_QUICKWIDGETS_LIB /D QT_UITOOLS_LIB /D QT_WIDGETS_LIB /Gm- /EHsc /MDd /GS /fp:precise /Zc:wchar_t /Zc:forScope /Zc:inline /Fo"X64\DEBUG\\" /Fd"X64\DEBUG\VC140.PDB" /Gd /TP C:\USERS\FLOW MENTES\DOCUMENTS\VISUAL STUDIO 2015\PROJECTS\NOSMALL EDITOR\NOSMALL EDITOR\GENERATEDFILES\DEBUG\MOC_NOSMALLEDITOR.CPP
^C:\USERS\FLOW MENTES\DOCUMENTS\VISUAL STUDIO 2015\PROJECTS\NOSMALL EDITOR\NOSMALL EDITOR\MAIN.CPP
/c /I.\GENERATEDFILES /I. /IC:\QT\5.7\MSVC2015_64\INCLUDE /I.\GENERATEDFILES\DEBUG /IC:\QT\5.7\MSVC2015_64\INCLUDE\QTCORE /IC:\QT\5.7\MSVC2015_64\INCLUDE\QTGUI /IC:\QT\5.7\MSVC2015_64\INCLUDE\QTMULTIMEDIA /IC:\QT\5.7\MSVC2015_64\INCLUDE\QTMULTIMEDIAWIDGETS /IC:\QT\5.7\MSVC2015_64\INCLUDE\QTQUICKWIDGETS /IC:\QT\5.7\MSVC2015_64\INCLUDE\QTUITOOLS /IC:\QT\5.7\MSVC2015_64\INCLUDE\QTWIDGETS /Zi /nologo /W1 /WX- /Od /D UNICODE /D WIN32 /D QT_DLL /D QT_CORE_LIB /D QT_GUI_LIB /D QT_MULTIMEDIA_LIB /D QT_MULTIMEDIAWIDGETS_LIB /D QT_QUICKWIDGETS_LIB /D QT_UITOOLS_LIB /D QT_WIDGETS_LIB /Gm- /EHsc /MDd /GS /fp:precise /Zc:wchar_t /Zc:forScope /Zc:inline /Fo"X64\DEBUG\\" /Fd"X64\DEBUG\VC140.PDB" /Gd /TP C:\USERS\FLOW MENTES\DOCUMENTS\VISUAL STUDIO 2015\PROJECTS\NOSMALL EDITOR\NOSMALL EDITOR\MAIN.CPP
^C:\USERS\FLOW MENTES\DOCUMENTS\VISUAL STUDIO 2015\PROJECTS\NOSMALL EDITOR\NOSMALL EDITOR\NOSMALLEDITOR.CPP
/c /I.\GENERATEDFILES /I. /IC:\QT\5.7\MSVC2015_64\INCLUDE /I.\GENERATEDFILES\DEBUG /IC:\QT\5.7\MSVC2015_64\INCLUDE\QTCORE /IC:\QT\5.7\MSVC2015_64\INCLUDE\QTGUI /IC:\QT\5.7\MSVC2015_64\INCLUDE\QTMULTIMEDIA /IC:\QT\5.7\MSVC2015_64\INCLUDE\QTMULTIMEDIAWIDGETS /IC:\QT\5.7\MSVC2015_64\INCLUDE\QTQUICKWIDGETS /IC:\QT\5.7\MSVC2015_64\INCLUDE\QTUITOOLS /IC:\QT\5.7\MSVC2015_64\INCLUDE\QTWIDGETS /Zi /nologo /W1 /WX- /Od /D UNICODE /D WIN32 /D QT_DLL /D QT_CORE_LIB /D QT_GUI_LIB /D QT_MULTIMEDIA_LIB /D QT_MULTIMEDIAWIDGETS_LIB /D QT_QUICKWIDGETS_LIB /D QT_UITOOLS_LIB /D QT_WIDGETS_LIB /Gm- /EHsc /MDd /GS /fp:precise /Zc:wchar_t /Zc:forScope /Zc:inline /Fo"X64\DEBUG\\" /Fd"X64\DEBUG\VC140.PDB" /Gd /TP C:\USERS\FLOW MENTES\DOCUMENTS\VISUAL STUDIO 2015\PROJECTS\NOSMALL EDITOR\NOSMALL EDITOR\NOSMALLEDITOR.CPP
^C:\USERS\FLOW MENTES\DOCUMENTS\VISUAL STUDIO 2015\PROJECTS\NOSMALL EDITOR\NOSMALL EDITOR\GENERATEDFILES\QRC_NOSMALLEDITOR.CPP
/c /I.\GENERATEDFILES /I. /IC:\QT\5.7\MSVC2015_64\INCLUDE /I.\GENERATEDFILES\DEBUG /IC:\QT\5.7\MSVC2015_64\INCLUDE\QTCORE /IC:\QT\5.7\MSVC2015_64\INCLUDE\QTGUI /IC:\QT\5.7\MSVC2015_64\INCLUDE\QTMULTIMEDIA /IC:\QT\5.7\MSVC2015_64\INCLUDE\QTMULTIMEDIAWIDGETS /IC:\QT\5.7\MSVC2015_64\INCLUDE\QTQUICKWIDGETS /IC:\QT\5.7\MSVC2015_64\INCLUDE\QTUITOOLS /IC:\QT\5.7\MSVC2015_64\INCLUDE\QTWIDGETS /Zi /nologo /W1 /WX- /Od /D UNICODE /D WIN32 /D QT_DLL /D QT_CORE_LIB /D QT_GUI_LIB /D QT_MULTIMEDIA_LIB /D QT_MULTIMEDIAWIDGETS_LIB /D QT_QUICKWIDGETS_LIB /D QT_UITOOLS_LIB /D QT_WIDGETS_LIB /Gm- /EHsc /MDd /GS /fp:precise /Zc:wchar_t /Zc:forScope /Zc:inline /Fo"X64\DEBUG\\" /Fd"X64\DEBUG\VC140.PDB" /Gd /TP C:\USERS\FLOW MENTES\DOCUMENTS\VISUAL STUDIO 2015\PROJECTS\NOSMALL EDITOR\NOSMALL EDITOR\GENERATEDFILES\QRC_NOSMALLEDITOR.CPP
^D:\PROJECTS\NOSMALL EDITOR\NOSMALL EDITOR\NOSTALESTRINGDEENCRYPT.CPP
/c /I.\GENERATEDFILES /I. /IC:\QT\5.9.2\MSVC2017_64\INCLUDE /I.\GENERATEDFILES\DEBUG /IC:\QT\5.9.2\MSVC2017_64\INCLUDE\QTCORE /IC:\QT\5.9.2\MSVC2017_64\INCLUDE\QTGUI /IC:\QT\5.9.2\MSVC2017_64\INCLUDE\QTMULTIMEDIA /IC:\QT\5.9.2\MSVC2017_64\INCLUDE\QTMULTIMEDIAWIDGETS /IC:\QT\5.9.2\MSVC2017_64\INCLUDE\QTQUICKWIDGETS /IC:\QT\5.9.2\MSVC2017_64\INCLUDE\QTUITOOLS /IC:\QT\5.9.2\MSVC2017_64\INCLUDE\QTWIDGETS /Zi /nologo /W1 /WX- /diagnostics:classic /Od /D UNICODE /D WIN32 /D QT_CORE_LIB /D QT_GUI_LIB /D QT_MULTIMEDIA_LIB /D QT_MULTIMEDIAWIDGETS_LIB /D QT_QUICKWIDGETS_LIB /D QT_UITOOLS_LIB /D QT_WIDGETS_LIB /Gm- /EHsc /MDd /GS /fp:precise /Zc:wchar_t /Zc:forScope /Zc:inline /Fo"X64\DEBUG\\" /Fd"X64\DEBUG\VC141.PDB" /Gd /TP D:\PROJECTS\NOSMALL EDITOR\NOSMALL EDITOR\NOSTALESTRINGDEENCRYPT.CPP
^D:\PROJECTS\NOSMALL EDITOR\NOSMALL EDITOR\GENERATEDFILES\DEBUG\MOC_MYWIDGET.CPP
/c /I.\GENERATEDFILES /I. /IC:\QT\5.9.2\MSVC2017_64\INCLUDE /I.\GENERATEDFILES\DEBUG /IC:\QT\5.9.2\MSVC2017_64\INCLUDE\QTCORE /IC:\QT\5.9.2\MSVC2017_64\INCLUDE\QTGUI /IC:\QT\5.9.2\MSVC2017_64\INCLUDE\QTMULTIMEDIA /IC:\QT\5.9.2\MSVC2017_64\INCLUDE\QTMULTIMEDIAWIDGETS /IC:\QT\5.9.2\MSVC2017_64\INCLUDE\QTQUICKWIDGETS /IC:\QT\5.9.2\MSVC2017_64\INCLUDE\QTUITOOLS /IC:\QT\5.9.2\MSVC2017_64\INCLUDE\QTWIDGETS /Zi /nologo /W1 /WX- /diagnostics:classic /Od /D UNICODE /D WIN32 /D QT_CORE_LIB /D QT_GUI_LIB /D QT_MULTIMEDIA_LIB /D QT_MULTIMEDIAWIDGETS_LIB /D QT_QUICKWIDGETS_LIB /D QT_UITOOLS_LIB /D QT_WIDGETS_LIB /Gm- /EHsc /MDd /GS /fp:precise /Zc:wchar_t /Zc:forScope /Zc:inline /Fo"X64\DEBUG\\" /Fd"X64\DEBUG\VC141.PDB" /Gd /TP D:\PROJECTS\NOSMALL EDITOR\NOSMALL EDITOR\GENERATEDFILES\DEBUG\MOC_MYWIDGET.CPP
^D:\PROJECTS\NOSMALL EDITOR\NOSMALL EDITOR\GENERATEDFILES\DEBUG\MOC_NOSMALLEDITOR.CPP
/c /I.\GENERATEDFILES /I. /IC:\QT\5.9.2\MSVC2017_64\INCLUDE /I.\GENERATEDFILES\DEBUG /IC:\QT\5.9.2\MSVC2017_64\INCLUDE\QTCORE /IC:\QT\5.9.2\MSVC2017_64\INCLUDE\QTGUI /IC:\QT\5.9.2\MSVC2017_64\INCLUDE\QTMULTIMEDIA /IC:\QT\5.9.2\MSVC2017_64\INCLUDE\QTMULTIMEDIAWIDGETS /IC:\QT\5.9.2\MSVC2017_64\INCLUDE\QTQUICKWIDGETS /IC:\QT\5.9.2\MSVC2017_64\INCLUDE\QTUITOOLS /IC:\QT\5.9.2\MSVC2017_64\INCLUDE\QTWIDGETS /Zi /nologo /W1 /WX- /diagnostics:classic /Od /D UNICODE /D WIN32 /D QT_CORE_LIB /D QT_GUI_LIB /D QT_MULTIMEDIA_LIB /D QT_MULTIMEDIAWIDGETS_LIB /D QT_QUICKWIDGETS_LIB /D QT_UITOOLS_LIB /D QT_WIDGETS_LIB /Gm- /EHsc /MDd /GS /fp:precise /Zc:wchar_t /Zc:forScope /Zc:inline /Fo"X64\DEBUG\\" /Fd"X64\DEBUG\VC141.PDB" /Gd /TP D:\PROJECTS\NOSMALL EDITOR\NOSMALL EDITOR\GENERATEDFILES\DEBUG\MOC_NOSMALLEDITOR.CPP
^D:\PROJECTS\NOSMALL EDITOR\NOSMALL EDITOR\MAIN.CPP
/c /I.\GENERATEDFILES /I. /IC:\QT\5.9.2\MSVC2017_64\INCLUDE /I.\GENERATEDFILES\DEBUG /IC:\QT\5.9.2\MSVC2017_64\INCLUDE\QTCORE /IC:\QT\5.9.2\MSVC2017_64\INCLUDE\QTGUI /IC:\QT\5.9.2\MSVC2017_64\INCLUDE\QTMULTIMEDIA /IC:\QT\5.9.2\MSVC2017_64\INCLUDE\QTMULTIMEDIAWIDGETS /IC:\QT\5.9.2\MSVC2017_64\INCLUDE\QTQUICKWIDGETS /IC:\QT\5.9.2\MSVC2017_64\INCLUDE\QTUITOOLS /IC:\QT\5.9.2\MSVC2017_64\INCLUDE\QTWIDGETS /Zi /nologo /W1 /WX- /diagnostics:classic /Od /D UNICODE /D WIN32 /D QT_CORE_LIB /D QT_GUI_LIB /D QT_MULTIMEDIA_LIB /D QT_MULTIMEDIAWIDGETS_LIB /D QT_QUICKWIDGETS_LIB /D QT_UITOOLS_LIB /D QT_WIDGETS_LIB /Gm- /EHsc /MDd /GS /fp:precise /Zc:wchar_t /Zc:forScope /Zc:inline /Fo"X64\DEBUG\\" /Fd"X64\DEBUG\VC141.PDB" /Gd /TP D:\PROJECTS\NOSMALL EDITOR\NOSMALL EDITOR\MAIN.CPP
^D:\PROJECTS\NOSMALL EDITOR\NOSMALL EDITOR\MYWIDGET.CPP
/c /I.\GENERATEDFILES /I. /IC:\QT\5.9.2\MSVC2017_64\INCLUDE /I.\GENERATEDFILES\DEBUG /IC:\QT\5.9.2\MSVC2017_64\INCLUDE\QTCORE /IC:\QT\5.9.2\MSVC2017_64\INCLUDE\QTGUI /IC:\QT\5.9.2\MSVC2017_64\INCLUDE\QTMULTIMEDIA /IC:\QT\5.9.2\MSVC2017_64\INCLUDE\QTMULTIMEDIAWIDGETS /IC:\QT\5.9.2\MSVC2017_64\INCLUDE\QTQUICKWIDGETS /IC:\QT\5.9.2\MSVC2017_64\INCLUDE\QTUITOOLS /IC:\QT\5.9.2\MSVC2017_64\INCLUDE\QTWIDGETS /Zi /nologo /W1 /WX- /diagnostics:classic /Od /D UNICODE /D WIN32 /D QT_CORE_LIB /D QT_GUI_LIB /D QT_MULTIMEDIA_LIB /D QT_MULTIMEDIAWIDGETS_LIB /D QT_QUICKWIDGETS_LIB /D QT_UITOOLS_LIB /D QT_WIDGETS_LIB /Gm- /EHsc /MDd /GS /fp:precise /Zc:wchar_t /Zc:forScope /Zc:inline /Fo"X64\DEBUG\\" /Fd"X64\DEBUG\VC141.PDB" /Gd /TP D:\PROJECTS\NOSMALL EDITOR\NOSMALL EDITOR\MYWIDGET.CPP
^D:\PROJECTS\NOSMALL EDITOR\NOSMALL EDITOR\GENERATEDFILES\QRC_NOSMALLEDITOR.CPP
/c /I.\GENERATEDFILES /I. /IC:\QT\5.9.2\MSVC2017_64\INCLUDE /I.\GENERATEDFILES\DEBUG /IC:\QT\5.9.2\MSVC2017_64\INCLUDE\QTCORE /IC:\QT\5.9.2\MSVC2017_64\INCLUDE\QTGUI /IC:\QT\5.9.2\MSVC2017_64\INCLUDE\QTMULTIMEDIA /IC:\QT\5.9.2\MSVC2017_64\INCLUDE\QTMULTIMEDIAWIDGETS /IC:\QT\5.9.2\MSVC2017_64\INCLUDE\QTQUICKWIDGETS /IC:\QT\5.9.2\MSVC2017_64\INCLUDE\QTUITOOLS /IC:\QT\5.9.2\MSVC2017_64\INCLUDE\QTWIDGETS /Zi /nologo /W1 /WX- /diagnostics:classic /Od /D UNICODE /D WIN32 /D QT_CORE_LIB /D QT_GUI_LIB /D QT_MULTIMEDIA_LIB /D QT_MULTIMEDIAWIDGETS_LIB /D QT_QUICKWIDGETS_LIB /D QT_UITOOLS_LIB /D QT_WIDGETS_LIB /Gm- /EHsc /MDd /GS /fp:precise /Zc:wchar_t /Zc:forScope /Zc:inline /Fo"X64\DEBUG\\" /Fd"X64\DEBUG\VC141.PDB" /Gd /TP D:\PROJECTS\NOSMALL EDITOR\NOSMALL EDITOR\GENERATEDFILES\QRC_NOSMALLEDITOR.CPP
^D:\PROJECTS\NOSMALL EDITOR\NOSMALL EDITOR\NOSMALLEDITOR.CPP
/c /I.\GENERATEDFILES /I. /IC:\QT\5.9.2\MSVC2017_64\INCLUDE /I.\GENERATEDFILES\DEBUG /IC:\QT\5.9.2\MSVC2017_64\INCLUDE\QTCORE /IC:\QT\5.9.2\MSVC2017_64\INCLUDE\QTGUI /IC:\QT\5.9.2\MSVC2017_64\INCLUDE\QTMULTIMEDIA /IC:\QT\5.9.2\MSVC2017_64\INCLUDE\QTMULTIMEDIAWIDGETS /IC:\QT\5.9.2\MSVC2017_64\INCLUDE\QTQUICKWIDGETS /IC:\QT\5.9.2\MSVC2017_64\INCLUDE\QTUITOOLS /IC:\QT\5.9.2\MSVC2017_64\INCLUDE\QTWIDGETS /Zi /nologo /W1 /WX- /diagnostics:classic /Od /D UNICODE /D WIN32 /D QT_CORE_LIB /D QT_GUI_LIB /D QT_MULTIMEDIA_LIB /D QT_MULTIMEDIAWIDGETS_LIB /D QT_QUICKWIDGETS_LIB /D QT_UITOOLS_LIB /D QT_WIDGETS_LIB /Gm- /EHsc /MDd /GS /fp:precise /Zc:wchar_t /Zc:forScope /Zc:inline /Fo"X64\DEBUG\\" /Fd"X64\DEBUG\VC141.PDB" /Gd /TP D:\PROJECTS\NOSMALL EDITOR\NOSMALL EDITOR\NOSMALLEDITOR.CPP
