^D:\PROJECTS\NOSMALL EDITOR\NOSMALL EDITOR\X64\DEBUG\MAIN.OBJ|D:\PROJECTS\NOSMALL EDITOR\NOSMALL EDITOR\X64\DEBUG\MOC_MYWIDGET.OBJ|D:\PROJECTS\NOSMALL EDITOR\NOSMALL EDITOR\X64\DEBUG\MOC_NOSMALLEDITOR.OBJ|D:\PROJECTS\NOSMALL EDITOR\NOSMALL EDITOR\X64\DEBUG\MYWIDGET.OBJ|D:\PROJECTS\NOSMALL EDITOR\NOSMALL EDITOR\X64\DEBUG\NOSMALLEDITOR.OBJ|D:\PROJECTS\NOSMALL EDITOR\NOSMALL EDITOR\X64\DEBUG\NOSTALESTRINGDEENCRYPT.OBJ|D:\PROJECTS\NOSMALL EDITOR\NOSMALL EDITOR\X64\DEBUG\QRC_NOSMALLEDITOR.OBJ
C:\WINDOWS\GLOBALIZATION\SORTING\SORTDEFAULT.NLS
C:\QT\5.9.2\MSVC2017_64\LIB\QTMAIND.LIB
C:\QT\5.9.2\MSVC2017_64\LIB\QT5CORED.LIB
C:\QT\5.9.2\MSVC2017_64\LIB\QT5GUID.LIB
C:\QT\5.9.2\MSVC2017_64\LIB\QT5MULTIMEDIAD.LIB
C:\QT\5.9.2\MSVC2017_64\LIB\QT5MULTIMEDIAWIDGETSD.LIB
C:\QT\5.9.2\MSVC2017_64\LIB\QT5QUICKWIDGETSD.LIB
C:\QT\5.9.2\MSVC2017_64\LIB\QT5UITOOLSD.LIB
C:\QT\5.9.2\MSVC2017_64\LIB\QT5WIDGETSD.LIB
C:\PROGRAM FILES (X86)\WINDOWS KITS\10\LIB\10.0.16299.0\UM\X64\KERNEL32.LIB
C:\PROGRAM FILES (X86)\WINDOWS KITS\10\LIB\10.0.16299.0\UM\X64\USER32.LIB
C:\PROGRAM FILES (X86)\WINDOWS KITS\10\LIB\10.0.16299.0\UM\X64\GDI32.LIB
C:\PROGRAM FILES (X86)\WINDOWS KITS\10\LIB\10.0.16299.0\UM\X64\WINSPOOL.LIB
C:\PROGRAM FILES (X86)\WINDOWS KITS\10\LIB\10.0.16299.0\UM\X64\COMDLG32.LIB
C:\PROGRAM FILES (X86)\WINDOWS KITS\10\LIB\10.0.16299.0\UM\X64\ADVAPI32.LIB
C:\PROGRAM FILES (X86)\WINDOWS KITS\10\LIB\10.0.16299.0\UM\X64\SHELL32.LIB
C:\PROGRAM FILES (X86)\WINDOWS KITS\10\LIB\10.0.16299.0\UM\X64\OLE32.LIB
C:\PROGRAM FILES (X86)\WINDOWS KITS\10\LIB\10.0.16299.0\UM\X64\OLEAUT32.LIB
C:\PROGRAM FILES (X86)\WINDOWS KITS\10\LIB\10.0.16299.0\UM\X64\UUID.LIB
C:\PROGRAM FILES (X86)\WINDOWS KITS\10\LIB\10.0.16299.0\UM\X64\ODBC32.LIB
C:\PROGRAM FILES (X86)\WINDOWS KITS\10\LIB\10.0.16299.0\UM\X64\ODBCCP32.LIB
D:\PROJECTS\NOSMALL EDITOR\NOSMALL EDITOR\X64\DEBUG\MOC_MYWIDGET.OBJ
D:\PROJECTS\NOSMALL EDITOR\NOSMALL EDITOR\X64\DEBUG\MOC_NOSMALLEDITOR.OBJ
D:\PROJECTS\NOSMALL EDITOR\NOSMALL EDITOR\X64\DEBUG\QRC_NOSMALLEDITOR.OBJ
D:\PROJECTS\NOSMALL EDITOR\NOSMALL EDITOR\X64\DEBUG\MAIN.OBJ
D:\PROJECTS\NOSMALL EDITOR\NOSMALL EDITOR\X64\DEBUG\MYWIDGET.OBJ
D:\PROJECTS\NOSMALL EDITOR\NOSMALL EDITOR\X64\DEBUG\NOSMALLEDITOR.OBJ
D:\PROJECTS\NOSMALL EDITOR\NOSMALL EDITOR\X64\DEBUG\NOSTALESTRINGDEENCRYPT.OBJ
C:\WINDOWS\SYSTEM32\TZRES.DLL
C:\PROGRAM FILES (X86)\MICROSOFT VISUAL STUDIO\2017\ENTERPRISE\VC\TOOLS\MSVC\14.11.25503\LIB\X64\MSVCPRTD.LIB
C:\PROGRAM FILES (X86)\MICROSOFT VISUAL STUDIO\2017\ENTERPRISE\VC\TOOLS\MSVC\14.11.25503\LIB\X64\MSVCRTD.LIB
C:\PROGRAM FILES (X86)\MICROSOFT VISUAL STUDIO\2017\ENTERPRISE\VC\TOOLS\MSVC\14.11.25503\LIB\X64\OLDNAMES.LIB
C:\PROGRAM FILES (X86)\MICROSOFT VISUAL STUDIO\2017\ENTERPRISE\VC\TOOLS\MSVC\14.11.25503\LIB\X64\VCRUNTIMED.LIB
C:\PROGRAM FILES (X86)\WINDOWS KITS\10\LIB\10.0.16299.0\UCRT\X64\UCRTD.LIB
