^E:\ALL\BACKUP\PROJECTS\NOSMALL EDITOR\NOSMALL EDITOR\NOSMALLEDITOR.H
E:\QT\5.12.0\MSVC2017\BIN\MOC.EXE
^E:\ALL\BACKUP\PROJECTS\NOSMALL EDITOR\NOSMALL EDITOR\NOSMALLEDITOR.UI
E:\QT\5.12.0\MSVC2017\BIN\UIC.EXE
^E:\ALL\BACKUP\PROJECTS\NOSMALL EDITOR\NOSMALL EDITOR\MYWIDGET.H
E:\QT\5.12.0\MSVC2017\BIN\MOC.EXE
^E:\ALL\BACKUP\PROJECTS\NOSMALL EDITOR\NOSMALL EDITOR\NOSMALLEDITOR.QRC
^E:\ALL\BACKUP\PROJECTS\NOSMALL EDITOR\NOSMALL EDITOR\MYWIDGET.UI
E:\QT\5.12.0\MSVC2017\BIN\UIC.EXE
