^D:\PROJECTS\NOSMALL EDITOR\NOSMALL EDITOR\NOSMALLEDITOR.H
D:\PROJECTS\NOSMALL EDITOR\NOSMALL EDITOR\GENERATEDFILES\RELEASE\MOC_NOSMALLEDITOR.CPP
^D:\PROJECTS\NOSMALL EDITOR\NOSMALL EDITOR\MYWIDGET.H
D:\PROJECTS\NOSMALL EDITOR\NOSMALL EDITOR\GENERATEDFILES\RELEASE\MOC_MYWIDGET.CPP
^D:\PROJECTS\NOSMALL EDITOR\NOSMALL EDITOR\NOSMALLEDITOR.QRC
D:\PROJECTS\NOSMALL EDITOR\NOSMALL EDITOR\GENERATEDFILES\QRC_NOSMALLEDITOR.CPP
^D:\PROJECTS\NOSMALL EDITOR\NOSMALL EDITOR\MYWIDGET.UI
D:\PROJECTS\NOSMALL EDITOR\NOSMALL EDITOR\GENERATEDFILES\UI_MYWIDGET.H
^D:\PROJECTS\NOSMALL EDITOR\NOSMALL EDITOR\NOSMALLEDITOR.UI
D:\PROJECTS\NOSMALL EDITOR\NOSMALL EDITOR\GENERATEDFILES\UI_NOSMALLEDITOR.H
